obj_dir/vega_top.vcd
$version Generated by VerilatedVcd $end
$timescale 1ps $end

 $scope module TOP $end
  $scope module tb_vega_top $end
   $var wire 32 9" ADDR_W [31:0] $end
   $var wire  4 C" ALU_ADD [3:0] $end
   $var wire  4 E" ALU_AND [3:0] $end
   $var wire  4 H" ALU_CMP [3:0] $end
   $var wire  4 F" ALU_OR [3:0] $end
   $var wire  4 D" ALU_SUB [3:0] $end
   $var wire  4 G" ALU_XOR [3:0] $end
   $var wire 32 7" CLK_PERIOD [31:0] $end
   $var wire 32 8" DATA_W [31:0] $end
   $var wire  8 ?" DP_ADDR_CTRL [7:0] $end
   $var wire  8 :" DP_ADDR_OP [7:0] $end
   $var wire  8 ;" DP_ADDR_OPND_A [7:0] $end
   $var wire  8 <" DP_ADDR_OPND_B [7:0] $end
   $var wire  8 =" DP_ADDR_RESULT [7:0] $end
   $var wire  8 @" DP_ADDR_RF_BASE [7:0] $end
   $var wire  8 >" DP_ADDR_STATUS [7:0] $end
   $var wire  8 :" RB_ADDR_CTRL [7:0] $end
   $var wire  8 @" RB_ADDR_IRQ_MASK [7:0] $end
   $var wire  8 B" RB_ADDR_PWR_CTRL [7:0] $end
   $var wire  8 <" RB_ADDR_SENSOR0 [7:0] $end
   $var wire  8 ;" RB_ADDR_STATUS [7:0] $end
   $var wire  8 A" RB_ADDR_THRESH0 [7:0] $end
   $var wire  1 + battery_low $end
   $var wire  1 ," clk $end
   $var wire  1 ' ext_wakeup_en $end
   $var wire  1 $ ext_wakeup_in $end
   $var wire  1 , fault_in $end
   $var wire  1 %" irq_out $end
   $var wire  1 ) irq_wakeup_en $end
   $var wire  1 & irq_wakeup_in $end
   $var wire  8 0 paddr [7:0] $end
   $var wire  1 . penable $end
   $var wire  1 q pmu_active $end
   $var wire  1 s pmu_fault $end
   $var wire  1 r pmu_sleeping $end
   $var wire  4 t pmu_state_out [3:0] $end
   $var wire 32 =! prdata [31:0] $end
   $var wire  1 >! pready $end
   $var wire  1 - psel $end
   $var wire  1 ?! pslverr $end
   $var wire 32 1 pwdata [31:0] $end
   $var wire  1 / pwrite $end
   $var wire 32 ; rd_data [31:0] $end
   $var wire  1 p reg_ack $end
   $var wire  8 4 reg_addr [7:0] $end
   $var wire  1 3 reg_rd_en $end
   $var wire 32 o reg_rdata [31:0] $end
   $var wire 32 5 reg_wdata [31:0] $end
   $var wire  1 2 reg_wr_en $end
   $var wire  1 # rst_n $end
   $var wire  1 ( rtc_wakeup_en $end
   $var wire  1 % rtc_wakeup_in $end
   $var wire 32 6 sensor0_data [31:0] $end
   $var wire 32 7 sensor1_data [31:0] $end
   $var wire 32 8 sensor2_data [31:0] $end
   $var wire 32 : test_fail_count [31:0] $end
   $var wire 32 9 test_pass_count [31:0] $end
   $var wire  1 * thermal_alert $end
   $var wire  3 u wakeup_src_status [2:0] $end
   $scope module dut $end
    $var wire 32 9" ADDR_W [31:0] $end
    $var wire 32 8" DATA_W [31:0] $end
    $var wire 32 J" TIMEOUT_VAL [31:0] $end
    $var wire 32 I" TIMEOUT_WIDTH [31:0] $end
    $var wire  1 + battery_low $end
    $var wire  1 ," clk $end
    $var wire  1 ` clk_gate_en $end
    $var wire  1 ." clk_proc $end
    $var wire  1 | context_saved $end
    $var wire  1 } context_valid $end
    $var wire  1 ' ext_wakeup_en $end
    $var wire  1 $ ext_wakeup_in $end
    $var wire  1 , fault_in $end
    $var wire  1 %" irq_out $end
    $var wire  1 ) irq_wakeup_en $end
    $var wire  1 & irq_wakeup_in $end
    $var wire  1 a iso_en $end
    $var wire  1 c lvl_shift_en $end
    $var wire  8 0 paddr [7:0] $end
    $var wire  1 . penable $end
    $var wire  1 q pmu_active $end
    $var wire  1 s pmu_fault $end
    $var wire  1 r pmu_sleeping $end
    $var wire  4 t pmu_state_out [3:0] $end
    $var wire 32 =! prdata [31:0] $end
    $var wire 32 /" prdata_iso [31:0] $end
    $var wire  1 >! pready $end
    $var wire  1 < pready_iso $end
    $var wire  1 n! proc_idle $end
    $var wire  1 -" proc_irq_ack $end
    $var wire  1 %" proc_irq_in $end
    $var wire  1 - psel $end
    $var wire  1 ?! pslverr $end
    $var wire 32 1 pwdata [31:0] $end
    $var wire  2 { pwr_ctrl_mode [1:0] $end
    $var wire  1 z pwr_ctrl_sleep_req $end
    $var wire  1 b pwr_sw_off $end
    $var wire  1 / pwrite $end
    $var wire  1 p reg_ack $end
    $var wire  8 4 reg_addr [7:0] $end
    $var wire  1 3 reg_rd_en $end
    $var wire 32 o reg_rdata [31:0] $end
    $var wire 32 5 reg_wdata [31:0] $end
    $var wire  1 2 reg_wr_en $end
    $var wire  1 x ret_restore_done $end
    $var wire  1 e ret_restore_en $end
    $var wire  1 w ret_save_done $end
    $var wire  1 d ret_save_en $end
    $var wire  1 # rst_n $end
    $var wire  1 ( rtc_wakeup_en $end
    $var wire  1 % rtc_wakeup_in $end
    $var wire 32 6 sensor0_data [31:0] $end
    $var wire 32 7 sensor1_data [31:0] $end
    $var wire 32 8 sensor2_data [31:0] $end
    $var wire  1 ^ seq_sleep_ack $end
    $var wire  1 ] seq_sleep_cmd $end
    $var wire  1 _ seq_wakeup_ack $end
    $var wire  1 v seq_wakeup_cmd $end
    $var wire  1 z sleep_req $end
    $var wire  1 * thermal_alert $end
    $var wire  1 q wakeup_clear $end
    $var wire  1 y wakeup_req $end
    $var wire  3 u wakeup_src_status [2:0] $end
    $scope module g_iso_prdata[0] $end
     $scope module u_iso $end
      $var wire  1 K" CLAMP_VAL $end
      $var wire  1 @! data_in $end
      $var wire  1 = data_out $end
      $var wire  1 a iso_en $end
     $upscope $end
    $upscope $end
    $scope module g_iso_prdata[10] $end
     $scope module u_iso $end
      $var wire  1 K" CLAMP_VAL $end
      $var wire  1 A! data_in $end
      $var wire  1 > data_out $end
      $var wire  1 a iso_en $end
     $upscope $end
    $upscope $end
    $scope module g_iso_prdata[11] $end
     $scope module u_iso $end
      $var wire  1 K" CLAMP_VAL $end
      $var wire  1 B! data_in $end
      $var wire  1 ? data_out $end
      $var wire  1 a iso_en $end
     $upscope $end
    $upscope $end
    $scope module g_iso_prdata[12] $end
     $scope module u_iso $end
      $var wire  1 K" CLAMP_VAL $end
      $var wire  1 C! data_in $end
      $var wire  1 @ data_out $end
      $var wire  1 a iso_en $end
     $upscope $end
    $upscope $end
    $scope module g_iso_prdata[13] $end
     $scope module u_iso $end
      $var wire  1 K" CLAMP_VAL $end
      $var wire  1 D! data_in $end
      $var wire  1 A data_out $end
      $var wire  1 a iso_en $end
     $upscope $end
    $upscope $end
    $scope module g_iso_prdata[14] $end
     $scope module u_iso $end
      $var wire  1 K" CLAMP_VAL $end
      $var wire  1 E! data_in $end
      $var wire  1 B data_out $end
      $var wire  1 a iso_en $end
     $upscope $end
    $upscope $end
    $scope module g_iso_prdata[15] $end
     $scope module u_iso $end
      $var wire  1 K" CLAMP_VAL $end
      $var wire  1 F! data_in $end
      $var wire  1 C data_out $end
      $var wire  1 a iso_en $end
     $upscope $end
    $upscope $end
    $scope module g_iso_prdata[16] $end
     $scope module u_iso $end
      $var wire  1 K" CLAMP_VAL $end
      $var wire  1 G! data_in $end
      $var wire  1 D data_out $end
      $var wire  1 a iso_en $end
     $upscope $end
    $upscope $end
    $scope module g_iso_prdata[17] $end
     $scope module u_iso $end
      $var wire  1 K" CLAMP_VAL $end
      $var wire  1 H! data_in $end
      $var wire  1 E data_out $end
      $var wire  1 a iso_en $end
     $upscope $end
    $upscope $end
    $scope module g_iso_prdata[18] $end
     $scope module u_iso $end
      $var wire  1 K" CLAMP_VAL $end
      $var wire  1 I! data_in $end
      $var wire  1 F data_out $end
      $var wire  1 a iso_en $end
     $upscope $end
    $upscope $end
    $scope module g_iso_prdata[19] $end
     $scope module u_iso $end
      $var wire  1 K" CLAMP_VAL $end
      $var wire  1 J! data_in $end
      $var wire  1 G data_out $end
      $var wire  1 a iso_en $end
     $upscope $end
    $upscope $end
    $scope module g_iso_prdata[1] $end
     $scope module u_iso $end
      $var wire  1 K" CLAMP_VAL $end
      $var wire  1 K! data_in $end
      $var wire  1 H data_out $end
      $var wire  1 a iso_en $end
     $upscope $end
    $upscope $end
    $scope module g_iso_prdata[20] $end
     $scope module u_iso $end
      $var wire  1 K" CLAMP_VAL $end
      $var wire  1 L! data_in $end
      $var wire  1 I data_out $end
      $var wire  1 a iso_en $end
     $upscope $end
    $upscope $end
    $scope module g_iso_prdata[21] $end
     $scope module u_iso $end
      $var wire  1 K" CLAMP_VAL $end
      $var wire  1 M! data_in $end
      $var wire  1 J data_out $end
      $var wire  1 a iso_en $end
     $upscope $end
    $upscope $end
    $scope module g_iso_prdata[22] $end
     $scope module u_iso $end
      $var wire  1 K" CLAMP_VAL $end
      $var wire  1 N! data_in $end
      $var wire  1 K data_out $end
      $var wire  1 a iso_en $end
     $upscope $end
    $upscope $end
    $scope module g_iso_prdata[23] $end
     $scope module u_iso $end
      $var wire  1 K" CLAMP_VAL $end
      $var wire  1 O! data_in $end
      $var wire  1 L data_out $end
      $var wire  1 a iso_en $end
     $upscope $end
    $upscope $end
    $scope module g_iso_prdata[24] $end
     $scope module u_iso $end
      $var wire  1 K" CLAMP_VAL $end
      $var wire  1 P! data_in $end
      $var wire  1 M data_out $end
      $var wire  1 a iso_en $end
     $upscope $end
    $upscope $end
    $scope module g_iso_prdata[25] $end
     $scope module u_iso $end
      $var wire  1 K" CLAMP_VAL $end
      $var wire  1 Q! data_in $end
      $var wire  1 N data_out $end
      $var wire  1 a iso_en $end
     $upscope $end
    $upscope $end
    $scope module g_iso_prdata[26] $end
     $scope module u_iso $end
      $var wire  1 K" CLAMP_VAL $end
      $var wire  1 R! data_in $end
      $var wire  1 O data_out $end
      $var wire  1 a iso_en $end
     $upscope $end
    $upscope $end
    $scope module g_iso_prdata[27] $end
     $scope module u_iso $end
      $var wire  1 K" CLAMP_VAL $end
      $var wire  1 S! data_in $end
      $var wire  1 P data_out $end
      $var wire  1 a iso_en $end
     $upscope $end
    $upscope $end
    $scope module g_iso_prdata[28] $end
     $scope module u_iso $end
      $var wire  1 K" CLAMP_VAL $end
      $var wire  1 T! data_in $end
      $var wire  1 Q data_out $end
      $var wire  1 a iso_en $end
     $upscope $end
    $upscope $end
    $scope module g_iso_prdata[29] $end
     $scope module u_iso $end
      $var wire  1 K" CLAMP_VAL $end
      $var wire  1 U! data_in $end
      $var wire  1 R data_out $end
      $var wire  1 a iso_en $end
     $upscope $end
    $upscope $end
    $scope module g_iso_prdata[2] $end
     $scope module u_iso $end
      $var wire  1 K" CLAMP_VAL $end
      $var wire  1 V! data_in $end
      $var wire  1 S data_out $end
      $var wire  1 a iso_en $end
     $upscope $end
    $upscope $end
    $scope module g_iso_prdata[30] $end
     $scope module u_iso $end
      $var wire  1 K" CLAMP_VAL $end
      $var wire  1 W! data_in $end
      $var wire  1 T data_out $end
      $var wire  1 a iso_en $end
     $upscope $end
    $upscope $end
    $scope module g_iso_prdata[31] $end
     $scope module u_iso $end
      $var wire  1 K" CLAMP_VAL $end
      $var wire  1 X! data_in $end
      $var wire  1 U data_out $end
      $var wire  1 a iso_en $end
     $upscope $end
    $upscope $end
    $scope module g_iso_prdata[3] $end
     $scope module u_iso $end
      $var wire  1 K" CLAMP_VAL $end
      $var wire  1 Y! data_in $end
      $var wire  1 V data_out $end
      $var wire  1 a iso_en $end
     $upscope $end
    $upscope $end
    $scope module g_iso_prdata[4] $end
     $scope module u_iso $end
      $var wire  1 K" CLAMP_VAL $end
      $var wire  1 Z! data_in $end
      $var wire  1 W data_out $end
      $var wire  1 a iso_en $end
     $upscope $end
    $upscope $end
    $scope module g_iso_prdata[5] $end
     $scope module u_iso $end
      $var wire  1 K" CLAMP_VAL $end
      $var wire  1 [! data_in $end
      $var wire  1 X data_out $end
      $var wire  1 a iso_en $end
     $upscope $end
    $upscope $end
    $scope module g_iso_prdata[6] $end
     $scope module u_iso $end
      $var wire  1 K" CLAMP_VAL $end
      $var wire  1 \! data_in $end
      $var wire  1 Y data_out $end
      $var wire  1 a iso_en $end
     $upscope $end
    $upscope $end
    $scope module g_iso_prdata[7] $end
     $scope module u_iso $end
      $var wire  1 K" CLAMP_VAL $end
      $var wire  1 ]! data_in $end
      $var wire  1 Z data_out $end
      $var wire  1 a iso_en $end
     $upscope $end
    $upscope $end
    $scope module g_iso_prdata[8] $end
     $scope module u_iso $end
      $var wire  1 K" CLAMP_VAL $end
      $var wire  1 ^! data_in $end
      $var wire  1 [ data_out $end
      $var wire  1 a iso_en $end
     $upscope $end
    $upscope $end
    $scope module g_iso_prdata[9] $end
     $scope module u_iso $end
      $var wire  1 K" CLAMP_VAL $end
      $var wire  1 _! data_in $end
      $var wire  1 \ data_out $end
      $var wire  1 a iso_en $end
     $upscope $end
    $upscope $end
    $scope module u_data_processor $end
     $var wire  8 ?" ADDR_CTRL [7:0] $end
     $var wire  8 :" ADDR_OP [7:0] $end
     $var wire  8 ;" ADDR_OPND_A [7:0] $end
     $var wire  8 <" ADDR_OPND_B [7:0] $end
     $var wire  8 =" ADDR_RESULT [7:0] $end
     $var wire  8 @" ADDR_RF_BASE [7:0] $end
     $var wire  8 >" ADDR_STATUS [7:0] $end
     $var wire 32 9" ADDR_W [31:0] $end
     $var wire 32 8" DATA_W [31:0] $end
     $var wire 32 9" RF_DEPTH [31:0] $end
     $var wire 32 }! alu_a [31:0] $end
     $var wire 32 ~! alu_b [31:0] $end
     $var wire  1 "" alu_overflow $end
     $var wire 32 !" alu_result [31:0] $end
     $var wire  1 ." clk $end
     $var wire  1 ` clk_gate_en $end
     $var wire  1 0" clk_gated $end
     $var wire 32 x! ctrl_reg [31:0] $end
     $var wire  1 -" irq_ack $end
     $var wire  1 #" irq_en $end
     $var wire  1 %" irq_in $end
     $var wire  1 t! irq_pending $end
     $var wire  3 1" next_state [2:0] $end
     $var wire  1 v! op_done $end
     $var wire 32 w! op_reg [31:0] $end
     $var wire  4 y! opcode [3:0] $end
     $var wire 32 h! operand_a_reg [31:0] $end
     $var wire 32 i! operand_b_reg [31:0] $end
     $var wire  1 u! overflow_flag $end
     $var wire  8 0 paddr [7:0] $end
     $var wire  1 . penable $end
     $var wire  4 s! pipe_opcode [3:0] $end
     $var wire  3 q! pipe_rd_idx [2:0] $end
     $var wire 32 p! pipe_result [31:0] $end
     $var wire  1 r! pipe_valid $end
     $var wire 32 =! prdata [31:0] $end
     $var wire  1 >! pready $end
     $var wire  1 n! proc_idle $end
     $var wire  1 - psel $end
     $var wire  1 ?! pslverr $end
     $var wire 32 1 pwdata [31:0] $end
     $var wire  1 / pwrite $end
     $var wire  3 |! rd_idx [2:0] $end
     $var wire 32 `! regfile[0] [31:0] $end
     $var wire 32 a! regfile[1] [31:0] $end
     $var wire 32 b! regfile[2] [31:0] $end
     $var wire 32 c! regfile[3] [31:0] $end
     $var wire 32 d! regfile[4] [31:0] $end
     $var wire 32 e! regfile[5] [31:0] $end
     $var wire 32 f! regfile[6] [31:0] $end
     $var wire 32 g! regfile[7] [31:0] $end
     $var wire 32 j! result_reg [31:0] $end
     $var wire  3 z! rs1_idx [2:0] $end
     $var wire  3 {! rs2_idx [2:0] $end
     $var wire  1 # rst_n $end
     $var wire  1 $" start_pulse $end
     $var wire  3 o! state [2:0] $end
     $scope module unnamedblk1 $end
      $var wire 32 k! i [31:0] $end
     $upscope $end
     $scope module unnamedblk2 $end
      $var wire 32 l! rf_idx [31:0] $end
     $upscope $end
     $scope module unnamedblk3 $end
      $var wire 32 m! rf_idx [31:0] $end
     $upscope $end
    $upscope $end
    $scope module u_icg_proc $end
     $var wire  1 ," clk_in $end
     $var wire  1 ." clk_out $end
     $var wire  1 f enable $end
     $var wire  1 2" enable_latched $end
     $var wire  1 K" test_en $end
    $upscope $end
    $scope module u_iso_pready $end
     $var wire  1 K" CLAMP_VAL $end
     $var wire  1 >! data_in $end
     $var wire  1 < data_out $end
     $var wire  1 a iso_en $end
    $upscope $end
    $scope module u_pmu_fsm $end
     $var wire 32 J" TIMEOUT_VAL [31:0] $end
     $var wire 32 I" TIMEOUT_WIDTH [31:0] $end
     $var wire  1 + battery_low $end
     $var wire  8 $! boot_cnt [7:0] $end
     $var wire  1 %! boot_done $end
     $var wire  1 ," clk $end
     $var wire  1 , fault_in $end
     $var wire  1 L" mem_idle $end
     $var wire  4 3" next_state [3:0] $end
     $var wire  1 q pmu_active $end
     $var wire  1 s pmu_fault $end
     $var wire  1 r pmu_sleeping $end
     $var wire  4 t pmu_state_out [3:0] $end
     $var wire  1 n! proc_idle $end
     $var wire  1 # rst_n $end
     $var wire  1 ^ seq_sleep_ack $end
     $var wire  1 ] seq_sleep_cmd $end
     $var wire  1 _ seq_wakeup_ack $end
     $var wire  1 v seq_wakeup_cmd $end
     $var wire  1 z sleep_req $end
     $var wire  4 ~ state [3:0] $end
     $var wire  1 * thermal_alert $end
     $var wire 16 !! timeout_cnt [15:0] $end
     $var wire  1 "! timeout_en $end
     $var wire  1 #! timeout_hit $end
     $var wire  1 y wakeup_req $end
    $upscope $end
    $scope module u_power_sequencer $end
     $var wire 32 9" STEP_DELAY [31:0] $end
     $var wire  1 ," clk $end
     $var wire  1 ` clk_gate_en $end
     $var wire  1 a iso_en $end
     $var wire  1 c lvl_shift_en $end
     $var wire  4 g next_state [3:0] $end
     $var wire  1 b pwr_sw_off $end
     $var wire  1 x ret_restore_done $end
     $var wire  1 e ret_restore_en $end
     $var wire  1 w ret_save_done $end
     $var wire  1 d ret_save_en $end
     $var wire  1 # rst_n $end
     $var wire  1 ^ seq_sleep_ack $end
     $var wire  1 ] seq_sleep_cmd $end
     $var wire  1 _ seq_wakeup_ack $end
     $var wire  1 v seq_wakeup_cmd $end
     $var wire  4 &! state [3:0] $end
     $var wire  4 '! step_cnt [3:0] $end
     $var wire  1 h step_cnt_en $end
     $var wire  1 (! step_done $end
    $upscope $end
    $scope module u_retention_ctrl $end
     $var wire 32 M" RESTORE_CYCLES [31:0] $end
     $var wire 32 M" SAVE_CYCLES [31:0] $end
     $var wire  1 ," clk $end
     $var wire  1 | context_saved $end
     $var wire  1 } context_valid $end
     $var wire  1 m ctx_saved_next $end
     $var wire  1 n ctx_valid_next $end
     $var wire  3 i next_state [2:0] $end
     $var wire  4 *! op_cnt [3:0] $end
     $var wire  1 j op_cnt_en $end
     $var wire  1 +! restore_complete $end
     $var wire  1 l restore_done_next $end
     $var wire  1 x ret_restore_done $end
     $var wire  1 e ret_restore_en $end
     $var wire  1 w ret_save_done $end
     $var wire  1 d ret_save_en $end
     $var wire  1 # rst_n $end
     $var wire  1 +! save_complete $end
     $var wire  1 k save_done_next $end
     $var wire  3 )! state [2:0] $end
    $upscope $end
    $scope module u_sensor_regbank $end
     $var wire  8 :" ADDR_CTRL [7:0] $end
     $var wire  8 @" ADDR_IRQ_MASK [7:0] $end
     $var wire  8 ?" ADDR_IRQ_STATUS [7:0] $end
     $var wire  8 A" ADDR_IRQ_THRESH0 [7:0] $end
     $var wire  8 N" ADDR_IRQ_THRESH1 [7:0] $end
     $var wire  8 O" ADDR_IRQ_THRESH2 [7:0] $end
     $var wire  8 B" ADDR_PWR_CTRL [7:0] $end
     $var wire  8 <" ADDR_SENSOR0 [7:0] $end
     $var wire  8 =" ADDR_SENSOR1 [7:0] $end
     $var wire  8 >" ADDR_SENSOR2 [7:0] $end
     $var wire  8 ;" ADDR_STATUS [7:0] $end
     $var wire 32 9" ADDR_W [31:0] $end
     $var wire 32 8" DATA_W [31:0] $end
     $var wire  1 ," clk $end
     $var wire 32 &" ctrl_reg [31:0] $end
     $var wire 32 (" irq_mask_reg [31:0] $end
     $var wire  1 %" irq_out $end
     $var wire  1 4" irq_sensor0 $end
     $var wire  1 5" irq_sensor1 $end
     $var wire  1 6" irq_sensor2 $end
     $var wire 32 '" irq_status_reg [31:0] $end
     $var wire 32 )" irq_thresh0_reg [31:0] $end
     $var wire 32 *" irq_thresh1_reg [31:0] $end
     $var wire 32 +" irq_thresh2_reg [31:0] $end
     $var wire  2 { pwr_ctrl_mode [1:0] $end
     $var wire 32 ,! pwr_ctrl_reg [31:0] $end
     $var wire  1 z pwr_ctrl_sleep_req $end
     $var wire  1 p reg_ack $end
     $var wire  8 4 reg_addr [7:0] $end
     $var wire  1 3 reg_rd_en $end
     $var wire 32 o reg_rdata [31:0] $end
     $var wire 32 5 reg_wdata [31:0] $end
     $var wire  1 2 reg_wr_en $end
     $var wire  1 # rst_n $end
     $var wire 32 6 sensor0_data [31:0] $end
     $var wire 32 7 sensor1_data [31:0] $end
     $var wire 32 8 sensor2_data [31:0] $end
     $var wire  1 -! sensor_valid $end
    $upscope $end
    $scope module u_wakeup_ctrl $end
     $var wire  1 ," clk $end
     $var wire  1 7! ext_edge $end
     $var wire  1 4! ext_prev $end
     $var wire  1 .! ext_sync_0 $end
     $var wire  1 /! ext_sync_1 $end
     $var wire  1 ' ext_wakeup_en $end
     $var wire  1 $ ext_wakeup_in $end
     $var wire  1 9! irq_edge $end
     $var wire  1 6! irq_prev $end
     $var wire  1 2! irq_sync_0 $end
     $var wire  1 3! irq_sync_1 $end
     $var wire  1 ) irq_wakeup_en $end
     $var wire  1 & irq_wakeup_in $end
     $var wire  1 # rst_n $end
     $var wire  1 8! rtc_edge $end
     $var wire  1 5! rtc_prev $end
     $var wire  1 0! rtc_sync_0 $end
     $var wire  1 1! rtc_sync_1 $end
     $var wire  1 ( rtc_wakeup_en $end
     $var wire  1 % rtc_wakeup_in $end
     $var wire  1 q wakeup_clear $end
     $var wire  1 :! wakeup_ext_lat $end
     $var wire  1 <! wakeup_irq_lat $end
     $var wire  1 y wakeup_req $end
     $var wire  1 ;! wakeup_rtc_lat $end
     $var wire  3 u wakeup_src_status [2:0] $end
    $upscope $end
   $upscope $end
  $upscope $end
 $upscope $end
$enddefinitions $end


#0
0#
0$
0%
0&
0'
1(
0)
0*
0+
0,
0-
0.
0/
b00000000 0
b00000000000000000000000000000000 1
02
03
b00000000 4
b00000000000000000000000000000000 5
b00000000000000000000000000010000 6
b00000000000000000000000000100000 7
b00000000000000000000000000110000 8
b00000000000000000000000000000000 9
b00000000000000000000000000000000 :
b00000000000000000000000000000000 ;
0<
0=
0>
0?
0@
0A
0B
0C
0D
0E
0F
0G
0H
0I
0J
0K
0L
0M
0N
0O
0P
0Q
0R
0S
0T
0U
0V
0W
0X
0Y
0Z
0[
0\
0]
0^
0_
0`
0a
0b
1c
0d
0e
1f
b0000 g
0h
b000 i
0j
0k
0l
0m
0n
b00000000000000000000000000000000 o
0p
0q
0r
0s
b0000 t
b000 u
0v
0w
0x
0y
0z
b00 {
0|
0}
b0000 ~
b0000000000000000 !!
0"!
0#!
b00000000 $!
0%!
b0000 &!
b0000 '!
0(!
b000 )!
b0000 *!
0+!
b00000000000000000000000000000000 ,!
0-!
0.!
0/!
00!
01!
02!
03!
04!
05!
06!
07!
08!
09!
0:!
0;!
0<!
b00000000000000000000000000000000 =!
0>!
0?!
0@!
0A!
0B!
0C!
0D!
0E!
0F!
0G!
0H!
0I!
0J!
0K!
0L!
0M!
0N!
0O!
0P!
0Q!
0R!
0S!
0T!
0U!
0V!
0W!
0X!
0Y!
0Z!
0[!
0\!
0]!
0^!
0_!
b00000000000000000000000000000000 `!
b00000000000000000000000000000000 a!
b00000000000000000000000000000000 b!
b00000000000000000000000000000000 c!
b00000000000000000000000000000000 d!
b00000000000000000000000000000000 e!
b00000000000000000000000000000000 f!
b00000000000000000000000000000000 g!
b00000000000000000000000000000000 h!
b00000000000000000000000000000000 i!
b00000000000000000000000000000000 j!
b00000000000000000000000000000000 k!
b00000000000000000000000000000000 l!
b00000000000000000000000000000000 m!
1n!
b000 o!
b00000000000000000000000000000000 p!
b000 q!
0r!
b0000 s!
0t!
0u!
0v!
b00000000000000000000000000000000 w!
b00000000000000000000000000000000 x!
b0000 y!
b000 z!
b000 {!
b000 |!
b00000000000000000000000000000000 }!
b00000000000000000000000000000000 ~!
b00000000000000000000000000000000 !"
0""
0#"
0$"
0%"
b00000000000000000000000000000000 &"
b00000000000000000000000000000000 '"
b00000000000000000000000000000000 ("
b00000000000000000000000000000000 )"
b00000000000000000000000000000000 *"
b00000000000000000000000000000000 +"
0,"
0-"
0."
b00000000000000000000000000000000 /"
00"
b000 1"
12"
b0001 3"
14"
15"
16"
b00000000000000000000000000001010 7"
b00000000000000000000000000100000 8"
b00000000000000000000000000001000 9"
b00000000 :"
b00000100 ;"
b00001000 <"
b00001100 ="
b00010000 >"
b00010100 ?"
b00011000 @"
b00011100 A"
b00101000 B"
b0000 C"
b0001 D"
b0010 E"
b0011 F"
b0100 G"
b0111 H"
b00000000000000000000000000010000 I"
b00000000000000000000000001100100 J"
0K"
1L"
b00000000000000000000000000000100 M"
b00100000 N"
b00100100 O"
#5000
b00000000000000000000000000001000 k!
b1111 s!
b11111111111111111111111111111111 )"
b11111111111111111111111111111111 *"
b11111111111111111111111111111111 +"
1,"
1."
10"
04"
05"
06"
#10000
0,"
0."
00"
#15000
1,"
1."
10"
#20000
0,"
0."
00"
#25000
1,"
1."
10"
#30000
0,"
0."
00"
#35000
1,"
1."
10"
#40000
0,"
0."
00"
#45000
1#
b0001 t
b0001 ~
1-!
1,"
1."
10"
#50000
0,"
0."
00"
#55000
b00000000000000000000000000000001 9
b00000001 $!
1,"
1."
10"
#60000
0,"
0."
00"
#65000
b00000010 $!
1,"
1."
10"
#70000
0,"
0."
00"
#75000
b00000011 $!
1,"
1."
10"
#80000
0,"
0."
00"
#85000
b00000100 $!
1,"
1."
10"
#90000
0,"
0."
00"
#95000
b00000101 $!
1,"
1."
10"
#100000
0,"
0."
00"
#105000
b00000110 $!
1,"
1."
10"
#110000
0,"
0."
00"
#115000
b00000111 $!
1,"
1."
10"
#120000
0,"
0."
00"
#125000
b00001000 $!
1,"
1."
10"
#130000
0,"
0."
00"
#135000
b00001001 $!
1,"
1."
10"
#140000
0,"
0."
00"
#145000
b00001010 $!
1,"
1."
10"
#150000
0,"
0."
00"
#155000
b00001011 $!
1,"
1."
10"
#160000
0,"
0."
00"
#165000
b00001100 $!
1,"
1."
10"
#170000
0,"
0."
00"
#175000
b00001101 $!
1,"
1."
10"
#180000
0,"
0."
00"
#185000
b00001110 $!
1,"
1."
10"
#190000
0,"
0."
00"
#195000
b00001111 $!
1%!
1,"
1."
10"
b0010 3"
#200000
0,"
0."
00"
#205000
1q
b0010 t
b0010 ~
b00010000 $!
1,"
1."
10"
#210000
0,"
0."
00"
#215000
b00000000000000000000000000000100 9
b00000000 $!
0%!
1,"
1."
10"
#220000
0,"
0."
00"
#225000
1-
1/
b00000100 0
b00000000000000000000000010101010 1
1,"
1."
10"
#230000
0,"
0."
00"
#235000
1.
1<
1>!
b00000000000000000000000010101010 h!
b00000000000000000000000010101010 }!
b00000000000000000000000010101010 !"
1,"
1."
10"
#240000
0,"
0."
00"
#245000
1,"
1."
10"
#250000
0,"
0."
00"
#255000
0-
0.
0/
0<
0>!
1,"
1."
10"
#260000
0,"
0."
00"
#265000
1-
1/
b00001000 0
b00000000000000000000000001010101 1
1,"
1."
10"
#270000
0,"
0."
00"
#275000
1.
1<
1>!
b00000000000000000000000001010101 i!
b00000000000000000000000001010101 ~!
b00000000000000000000000011111111 !"
1,"
1."
10"
#280000
0,"
0."
00"
#285000
1,"
1."
10"
#290000
0,"
0."
00"
#295000
0-
0.
0/
0<
0>!
1,"
1."
10"
#300000
0,"
0."
00"
#305000
1-
1/
b00000000 0
b00000000000000000000000000000000 1
1,"
1."
10"
#310000
0,"
0."
00"
#315000
1.
1<
1>!
1,"
1."
10"
#320000
0,"
0."
00"
#325000
1,"
1."
10"
#330000
0,"
0."
00"
#335000
0-
0.
0/
0<
0>!
1,"
1."
10"
#340000
0,"
0."
00"
#345000
1-
1/
b00010100 0
b00000000000000000000000000000001 1
1,"
1."
10"
#350000
0,"
0."
00"
#355000
1.
1<
1>!
b00000000000000000000000000000001 x!
1$"
1,"
1."
10"
b001 1"
#360000
0,"
0."
00"
#365000
0n!
b001 o!
1,"
1."
10"
b010 1"
#370000
0,"
0."
00"
#375000
0-
0.
0/
0<
0>!
b010 o!
b00000000000000000000000000000000 x!
0$"
1,"
1."
10"
b011 1"
#380000
0,"
0."
00"
#385000
b011 o!
b00000000000000000000000011111111 p!
1r!
b0000 s!
1,"
1."
10"
b000 1"
#390000
0,"
0."
00"
#395000
b00000000000000000000000011111111 j!
1n!
b000 o!
0r!
1v!
1,"
1."
10"
#400000
0,"
0."
00"
#405000
0v!
1,"
1."
10"
#410000
0,"
0."
00"
#415000
1,"
1."
10"
#420000
0,"
0."
00"
#425000
1,"
1."
10"
#430000
0,"
0."
00"
#435000
1,"
1."
10"
#440000
0,"
0."
00"
#445000
1,"
1."
10"
#450000
0,"
0."
00"
#455000
1,"
1."
10"
#460000
0,"
0."
00"
#465000
1,"
1."
10"
#470000
0,"
0."
00"
#475000
1,"
1."
10"
#480000
0,"
0."
00"
#485000
1-
b00001100 0
1,"
1."
10"
#490000
0,"
0."
00"
#495000
1.
1<
1=
1H
1S
1V
1W
1X
1Y
1Z
b00000000000000000000000011111111 =!
1>!
1@!
1K!
1V!
1Y!
1Z!
1[!
1\!
1]!
1,"
1."
b00000000000000000000000011111111 /"
10"
#500000
0,"
0."
00"
#505000
1,"
1."
10"
#510000
0,"
0."
00"
#515000
0-
0.
b00000000000000000000000000000101 9
b00000000000000000000000011111111 ;
0<
0=
0H
0S
0V
0W
0X
0Y
0Z
b00000000000000000000000000000000 =!
0>!
0@!
0K!
0V!
0Y!
0Z!
0[!
0\!
0]!
1,"
1."
b00000000000000000000000000000000 /"
10"
#520000
0,"
0."
00"
